{
    "name": "Git Test 2",
    "components": [
        {
            "name": "/Main",
            "graph": {
                "connections": [],
                "roots": [
                    {
                        "id": "2d3ccd33-f1ef-2dc5-3e1a-ca9d61cd222b",
                        "type": "Group",
                        "label": "Root",
                        "x": 265,
                        "y": 278,
                        "parameters": {
                            "fill": "parent"
                        },
                        "ports": [],
                        "dynamicports": [],
                        "children": [
                            {
                                "id": "fa90ea16-1232-0437-deea-5dd6263d8247",
                                "type": "Rectangle",
                                "label": "Background",
                                "x": 20,
                                "y": 61,
                                "parameters": {},
                                "ports": [],
                                "dynamicports": [],
                                "children": []
                            },
                            {
                                "id": "189062e3-73dc-05ee-617c-55a3c2f1cc31",
                                "type": "Text",
                                "x": 20,
                                "y": 122,
                                "parameters": {
                                    "alignX": "center",
                                    "alignY": "center",
                                    "text": "Hello Git mine 12",
                                    "fontSize": 100,
                                    "color": "#000000",
                                    "sizeMode": "childSize"
                                },
                                "ports": [],
                                "dynamicports": [],
                                "conflicts": [],
                                "children": []
                            }
                        ]
                    }
                ]
            }
        }
    ],
    "settings": {
        "devices": "Default Device",
        "Default Device.fillMode": "aspectFit",
        "Default Device.canvasWidth": 1080,
        "Default Device.canvasHeight": 1920
    },
    "rootNodeId": "2d3ccd33-f1ef-2dc5-3e1a-ca9d61cd222b",
    "version": "1"
}